%YAML 1.1
%TAG !u! tag:unity3d.com,2011:
--- !u!1 &933126619797393702
GameObject:
  m_ObjectHideFlags: 0
  m_CorrespondingSourceObject: {fileID: 0}
  m_PrefabInstance: {fileID: 0}
  m_PrefabAsset: {fileID: 0}
  serializedVersion: 6
  m_Component:
  - component: {fileID: 5788192515799121816}
  - component: {fileID: 2210310627204161052}
  - component: {fileID: 5695079819269104045}
  m_Layer: 31
  m_Name: Layer1
  m_TagString: Untagged
  m_Icon: {fileID: 0}
  m_NavMeshLayer: 0
  m_StaticEditorFlags: 0
  m_IsActive: 1
--- !u!4 &5788192515799121816
Transform:
  m_ObjectHideFlags: 0
  m_CorrespondingSourceObject: {fileID: 0}
  m_PrefabInstance: {fileID: 0}
  m_PrefabAsset: {fileID: 0}
  m_GameObject: {fileID: 933126619797393702}
  m_LocalRotation: {x: -0, y: -0, z: -0, w: 1}
  m_LocalPosition: {x: 0, y: 0, z: 0}
  m_LocalScale: {x: 1, y: 1, z: 1}
  m_Children: []
  m_Father: {fileID: 4053911139368754626}
  m_RootOrder: 0
  m_LocalEulerAnglesHint: {x: 0, y: 0, z: 0}
--- !u!1839735485 &2210310627204161052
Tilemap:
  m_ObjectHideFlags: 0
  m_CorrespondingSourceObject: {fileID: 0}
  m_PrefabInstance: {fileID: 0}
  m_PrefabAsset: {fileID: 0}
  m_GameObject: {fileID: 933126619797393702}
  m_Enabled: 1
  m_Tiles:
  - first: {x: -1, y: -8, z: 0}
    second:
      serializedVersion: 2
      m_TileIndex: 72
      m_TileSpriteIndex: 72
      m_TileMatrixIndex: 0
      m_TileColorIndex: 0
      m_TileObjectToInstantiateIndex: 65535
      m_AllTileFlags: 1073741825
  - first: {x: -1, y: -7, z: 0}
    second:
      serializedVersion: 2
      m_TileIndex: 63
      m_TileSpriteIndex: 63
      m_TileMatrixIndex: 0
      m_TileColorIndex: 0
      m_TileObjectToInstantiateIndex: 65535
      m_AllTileFlags: 1073741825
  - first: {x: 0, y: -7, z: 0}
    second:
      serializedVersion: 2
      m_TileIndex: 64
      m_TileSpriteIndex: 64
      m_TileMatrixIndex: 0
      m_TileColorIndex: 0
      m_TileObjectToInstantiateIndex: 65535
      m_AllTileFlags: 1073741825
  - first: {x: 1, y: -7, z: 0}
    second:
      serializedVersion: 2
      m_TileIndex: 65
      m_TileSpriteIndex: 65
      m_TileMatrixIndex: 0
      m_TileColorIndex: 0
      m_TileObjectToInstantiateIndex: 65535
      m_AllTileFlags: 1073741825
  - first: {x: 2, y: -7, z: 0}
    second:
      serializedVersion: 2
      m_TileIndex: 66
      m_TileSpriteIndex: 66
      m_TileMatrixIndex: 0
      m_TileColorIndex: 0
      m_TileObjectToInstantiateIndex: 65535
      m_AllTileFlags: 1073741825
  - first: {x: 3, y: -7, z: 0}
    second:
      serializedVersion: 2
      m_TileIndex: 67
      m_TileSpriteIndex: 67
      m_TileMatrixIndex: 0
      m_TileColorIndex: 0
      m_TileObjectToInstantiateIndex: 65535
      m_AllTileFlags: 1073741825
  - first: {x: 4, y: -7, z: 0}
    second:
      serializedVersion: 2
      m_TileIndex: 68
      m_TileSpriteIndex: 68
      m_TileMatrixIndex: 0
      m_TileColorIndex: 0
      m_TileObjectToInstantiateIndex: 65535
      m_AllTileFlags: 1073741825
  - first: {x: 5, y: -7, z: 0}
    second:
      serializedVersion: 2
      m_TileIndex: 69
      m_TileSpriteIndex: 69
      m_TileMatrixIndex: 0
      m_TileColorIndex: 0
      m_TileObjectToInstantiateIndex: 65535
      m_AllTileFlags: 1073741825
  - first: {x: 6, y: -7, z: 0}
    second:
      serializedVersion: 2
      m_TileIndex: 70
      m_TileSpriteIndex: 70
      m_TileMatrixIndex: 0
      m_TileColorIndex: 0
      m_TileObjectToInstantiateIndex: 65535
      m_AllTileFlags: 1073741825
  - first: {x: 7, y: -7, z: 0}
    second:
      serializedVersion: 2
      m_TileIndex: 71
      m_TileSpriteIndex: 71
      m_TileMatrixIndex: 0
      m_TileColorIndex: 0
      m_TileObjectToInstantiateIndex: 65535
      m_AllTileFlags: 1073741825
  - first: {x: -1, y: -6, z: 0}
    second:
      serializedVersion: 2
      m_TileIndex: 54
      m_TileSpriteIndex: 54
      m_TileMatrixIndex: 0
      m_TileColorIndex: 0
      m_TileObjectToInstantiateIndex: 65535
      m_AllTileFlags: 1073741825
  - first: {x: 0, y: -6, z: 0}
    second:
      serializedVersion: 2
      m_TileIndex: 55
      m_TileSpriteIndex: 55
      m_TileMatrixIndex: 0
      m_TileColorIndex: 0
      m_TileObjectToInstantiateIndex: 65535
      m_AllTileFlags: 1073741825
  - first: {x: 1, y: -6, z: 0}
    second:
      serializedVersion: 2
      m_TileIndex: 56
      m_TileSpriteIndex: 56
      m_TileMatrixIndex: 0
      m_TileColorIndex: 0
      m_TileObjectToInstantiateIndex: 65535
      m_AllTileFlags: 1073741825
  - first: {x: 2, y: -6, z: 0}
    second:
      serializedVersion: 2
      m_TileIndex: 57
      m_TileSpriteIndex: 57
      m_TileMatrixIndex: 0
      m_TileColorIndex: 0
      m_TileObjectToInstantiateIndex: 65535
      m_AllTileFlags: 1073741825
  - first: {x: 3, y: -6, z: 0}
    second:
      serializedVersion: 2
      m_TileIndex: 58
      m_TileSpriteIndex: 58
      m_TileMatrixIndex: 0
      m_TileColorIndex: 0
      m_TileObjectToInstantiateIndex: 65535
      m_AllTileFlags: 1073741825
  - first: {x: 4, y: -6, z: 0}
    second:
      serializedVersion: 2
      m_TileIndex: 59
      m_TileSpriteIndex: 59
      m_TileMatrixIndex: 0
      m_TileColorIndex: 0
      m_TileObjectToInstantiateIndex: 65535
      m_AllTileFlags: 1073741825
  - first: {x: 5, y: -6, z: 0}
    second:
      serializedVersion: 2
      m_TileIndex: 60
      m_TileSpriteIndex: 60
      m_TileMatrixIndex: 0
      m_TileColorIndex: 0
      m_TileObjectToInstantiateIndex: 65535
      m_AllTileFlags: 1073741825
  - first: {x: 6, y: -6, z: 0}
    second:
      serializedVersion: 2
      m_TileIndex: 61
      m_TileSpriteIndex: 61
      m_TileMatrixIndex: 0
      m_TileColorIndex: 0
      m_TileObjectToInstantiateIndex: 65535
      m_AllTileFlags: 1073741825
  - first: {x: 7, y: -6, z: 0}
    second:
      serializedVersion: 2
      m_TileIndex: 62
      m_TileSpriteIndex: 62
      m_TileMatrixIndex: 0
      m_TileColorIndex: 0
      m_TileObjectToInstantiateIndex: 65535
      m_AllTileFlags: 1073741825
  - first: {x: -1, y: -5, z: 0}
    second:
      serializedVersion: 2
      m_TileIndex: 45
      m_TileSpriteIndex: 45
      m_TileMatrixIndex: 0
      m_TileColorIndex: 0
      m_TileObjectToInstantiateIndex: 65535
      m_AllTileFlags: 1073741825
  - first: {x: 0, y: -5, z: 0}
    second:
      serializedVersion: 2
      m_TileIndex: 46
      m_TileSpriteIndex: 46
      m_TileMatrixIndex: 0
      m_TileColorIndex: 0
      m_TileObjectToInstantiateIndex: 65535
      m_AllTileFlags: 1073741825
  - first: {x: 1, y: -5, z: 0}
    second:
      serializedVersion: 2
      m_TileIndex: 47
      m_TileSpriteIndex: 47
      m_TileMatrixIndex: 0
      m_TileColorIndex: 0
      m_TileObjectToInstantiateIndex: 65535
      m_AllTileFlags: 1073741825
  - first: {x: 2, y: -5, z: 0}
    second:
      serializedVersion: 2
      m_TileIndex: 48
      m_TileSpriteIndex: 48
      m_TileMatrixIndex: 0
      m_TileColorIndex: 0
      m_TileObjectToInstantiateIndex: 65535
      m_AllTileFlags: 1073741825
  - first: {x: 3, y: -5, z: 0}
    second:
      serializedVersion: 2
      m_TileIndex: 49
      m_TileSpriteIndex: 49
      m_TileMatrixIndex: 0
      m_TileColorIndex: 0
      m_TileObjectToInstantiateIndex: 65535
      m_AllTileFlags: 1073741825
  - first: {x: 4, y: -5, z: 0}
    second:
      serializedVersion: 2
      m_TileIndex: 50
      m_TileSpriteIndex: 50
      m_TileMatrixIndex: 0
      m_TileColorIndex: 0
      m_TileObjectToInstantiateIndex: 65535
      m_AllTileFlags: 1073741825
  - first: {x: 5, y: -5, z: 0}
    second:
      serializedVersion: 2
      m_TileIndex: 51
      m_TileSpriteIndex: 51
      m_TileMatrixIndex: 0
      m_TileColorIndex: 0
      m_TileObjectToInstantiateIndex: 65535
      m_AllTileFlags: 1073741825
  - first: {x: 6, y: -5, z: 0}
    second:
      serializedVersion: 2
      m_TileIndex: 52
      m_TileSpriteIndex: 52
      m_TileMatrixIndex: 0
      m_TileColorIndex: 0
      m_TileObjectToInstantiateIndex: 65535
      m_AllTileFlags: 1073741825
  - first: {x: 7, y: -5, z: 0}
    second:
      serializedVersion: 2
      m_TileIndex: 53
      m_TileSpriteIndex: 53
      m_TileMatrixIndex: 0
      m_TileColorIndex: 0
      m_TileObjectToInstantiateIndex: 65535
      m_AllTileFlags: 1073741825
  - first: {x: -1, y: -4, z: 0}
    second:
      serializedVersion: 2
      m_TileIndex: 36
      m_TileSpriteIndex: 36
      m_TileMatrixIndex: 0
      m_TileColorIndex: 0
      m_TileObjectToInstantiateIndex: 65535
      m_AllTileFlags: 1073741825
  - first: {x: 0, y: -4, z: 0}
    second:
      serializedVersion: 2
      m_TileIndex: 37
      m_TileSpriteIndex: 37
      m_TileMatrixIndex: 0
      m_TileColorIndex: 0
      m_TileObjectToInstantiateIndex: 65535
      m_AllTileFlags: 1073741825
  - first: {x: 1, y: -4, z: 0}
    second:
      serializedVersion: 2
      m_TileIndex: 38
      m_TileSpriteIndex: 38
      m_TileMatrixIndex: 0
      m_TileColorIndex: 0
      m_TileObjectToInstantiateIndex: 65535
      m_AllTileFlags: 1073741825
  - first: {x: 2, y: -4, z: 0}
    second:
      serializedVersion: 2
      m_TileIndex: 39
      m_TileSpriteIndex: 39
      m_TileMatrixIndex: 0
      m_TileColorIndex: 0
      m_TileObjectToInstantiateIndex: 65535
      m_AllTileFlags: 1073741825
  - first: {x: 3, y: -4, z: 0}
    second:
      serializedVersion: 2
      m_TileIndex: 40
      m_TileSpriteIndex: 40
      m_TileMatrixIndex: 0
      m_TileColorIndex: 0
      m_TileObjectToInstantiateIndex: 65535
      m_AllTileFlags: 1073741825
  - first: {x: 4, y: -4, z: 0}
    second:
      serializedVersion: 2
      m_TileIndex: 41
      m_TileSpriteIndex: 41
      m_TileMatrixIndex: 0
      m_TileColorIndex: 0
      m_TileObjectToInstantiateIndex: 65535
      m_AllTileFlags: 1073741825
  - first: {x: 5, y: -4, z: 0}
    second:
      serializedVersion: 2
      m_TileIndex: 42
      m_TileSpriteIndex: 42
      m_TileMatrixIndex: 0
      m_TileColorIndex: 0
      m_TileObjectToInstantiateIndex: 65535
      m_AllTileFlags: 1073741825
  - first: {x: 6, y: -4, z: 0}
    second:
      serializedVersion: 2
      m_TileIndex: 43
      m_TileSpriteIndex: 43
      m_TileMatrixIndex: 0
      m_TileColorIndex: 0
      m_TileObjectToInstantiateIndex: 65535
      m_AllTileFlags: 1073741825
  - first: {x: 7, y: -4, z: 0}
    second:
      serializedVersion: 2
      m_TileIndex: 44
      m_TileSpriteIndex: 44
      m_TileMatrixIndex: 0
      m_TileColorIndex: 0
      m_TileObjectToInstantiateIndex: 65535
      m_AllTileFlags: 1073741825
  - first: {x: -1, y: -3, z: 0}
    second:
      serializedVersion: 2
      m_TileIndex: 27
      m_TileSpriteIndex: 27
      m_TileMatrixIndex: 0
      m_TileColorIndex: 0
      m_TileObjectToInstantiateIndex: 65535
      m_AllTileFlags: 1073741825
  - first: {x: 0, y: -3, z: 0}
    second:
      serializedVersion: 2
      m_TileIndex: 28
      m_TileSpriteIndex: 28
      m_TileMatrixIndex: 0
      m_TileColorIndex: 0
      m_TileObjectToInstantiateIndex: 65535
      m_AllTileFlags: 1073741825
  - first: {x: 1, y: -3, z: 0}
    second:
      serializedVersion: 2
      m_TileIndex: 29
      m_TileSpriteIndex: 29
      m_TileMatrixIndex: 0
      m_TileColorIndex: 0
      m_TileObjectToInstantiateIndex: 65535
      m_AllTileFlags: 1073741825
  - first: {x: 2, y: -3, z: 0}
    second:
      serializedVersion: 2
      m_TileIndex: 30
      m_TileSpriteIndex: 30
      m_TileMatrixIndex: 0
      m_TileColorIndex: 0
      m_TileObjectToInstantiateIndex: 65535
      m_AllTileFlags: 1073741825
  - first: {x: 3, y: -3, z: 0}
    second:
      serializedVersion: 2
      m_TileIndex: 31
      m_TileSpriteIndex: 31
      m_TileMatrixIndex: 0
      m_TileColorIndex: 0
      m_TileObjectToInstantiateIndex: 65535
      m_AllTileFlags: 1073741825
  - first: {x: 4, y: -3, z: 0}
    second:
      serializedVersion: 2
      m_TileIndex: 32
      m_TileSpriteIndex: 32
      m_TileMatrixIndex: 0
      m_TileColorIndex: 0
      m_TileObjectToInstantiateIndex: 65535
      m_AllTileFlags: 1073741825
  - first: {x: 5, y: -3, z: 0}
    second:
      serializedVersion: 2
      m_TileIndex: 33
      m_TileSpriteIndex: 33
      m_TileMatrixIndex: 0
      m_TileColorIndex: 0
      m_TileObjectToInstantiateIndex: 65535
      m_AllTileFlags: 1073741825
  - first: {x: 6, y: -3, z: 0}
    second:
      serializedVersion: 2
      m_TileIndex: 34
      m_TileSpriteIndex: 34
      m_TileMatrixIndex: 0
      m_TileColorIndex: 0
      m_TileObjectToInstantiateIndex: 65535
      m_AllTileFlags: 1073741825
  - first: {x: 7, y: -3, z: 0}
    second:
      serializedVersion: 2
      m_TileIndex: 35
      m_TileSpriteIndex: 35
      m_TileMatrixIndex: 0
      m_TileColorIndex: 0
      m_TileObjectToInstantiateIndex: 65535
      m_AllTileFlags: 1073741825
  - first: {x: -1, y: -2, z: 0}
    second:
      serializedVersion: 2
      m_TileIndex: 18
      m_TileSpriteIndex: 22
      m_TileMatrixIndex: 0
      m_TileColorIndex: 0
      m_TileObjectToInstantiateIndex: 65535
      m_AllTileFlags: 1073741825
  - first: {x: 0, y: -2, z: 0}
    second:
      serializedVersion: 2
      m_TileIndex: 19
      m_TileSpriteIndex: 19
      m_TileMatrixIndex: 0
      m_TileColorIndex: 0
      m_TileObjectToInstantiateIndex: 65535
      m_AllTileFlags: 1073741825
  - first: {x: 1, y: -2, z: 0}
    second:
      serializedVersion: 2
      m_TileIndex: 20
      m_TileSpriteIndex: 20
      m_TileMatrixIndex: 0
      m_TileColorIndex: 0
      m_TileObjectToInstantiateIndex: 65535
      m_AllTileFlags: 1073741825
  - first: {x: 2, y: -2, z: 0}
    second:
      serializedVersion: 2
      m_TileIndex: 21
      m_TileSpriteIndex: 21
      m_TileMatrixIndex: 0
      m_TileColorIndex: 0
      m_TileObjectToInstantiateIndex: 65535
      m_AllTileFlags: 1073741825
  - first: {x: 4, y: -2, z: 0}
    second:
      serializedVersion: 2
      m_TileIndex: 23
      m_TileSpriteIndex: 23
      m_TileMatrixIndex: 0
      m_TileColorIndex: 0
      m_TileObjectToInstantiateIndex: 65535
      m_AllTileFlags: 1073741825
  - first: {x: 5, y: -2, z: 0}
    second:
      serializedVersion: 2
      m_TileIndex: 24
      m_TileSpriteIndex: 24
      m_TileMatrixIndex: 0
      m_TileColorIndex: 0
      m_TileObjectToInstantiateIndex: 65535
      m_AllTileFlags: 1073741825
  - first: {x: 6, y: -2, z: 0}
    second:
      serializedVersion: 2
      m_TileIndex: 25
      m_TileSpriteIndex: 25
      m_TileMatrixIndex: 0
      m_TileColorIndex: 0
      m_TileObjectToInstantiateIndex: 65535
      m_AllTileFlags: 1073741825
  - first: {x: 7, y: -2, z: 0}
    second:
      serializedVersion: 2
      m_TileIndex: 26
      m_TileSpriteIndex: 26
      m_TileMatrixIndex: 0
      m_TileColorIndex: 0
      m_TileObjectToInstantiateIndex: 65535
      m_AllTileFlags: 1073741825
  - first: {x: -1, y: -1, z: 0}
    second:
      serializedVersion: 2
      m_TileIndex: 9
      m_TileSpriteIndex: 18
      m_TileMatrixIndex: 0
      m_TileColorIndex: 0
      m_TileObjectToInstantiateIndex: 65535
      m_AllTileFlags: 1073741825
  - first: {x: 0, y: -1, z: 0}
    second:
      serializedVersion: 2
      m_TileIndex: 10
      m_TileSpriteIndex: 10
      m_TileMatrixIndex: 0
      m_TileColorIndex: 0
      m_TileObjectToInstantiateIndex: 65535
      m_AllTileFlags: 1073741825
  - first: {x: 1, y: -1, z: 0}
    second:
      serializedVersion: 2
      m_TileIndex: 11
      m_TileSpriteIndex: 11
      m_TileMatrixIndex: 0
      m_TileColorIndex: 0
      m_TileObjectToInstantiateIndex: 65535
      m_AllTileFlags: 1073741825
  - first: {x: 2, y: -1, z: 0}
    second:
      serializedVersion: 2
      m_TileIndex: 12
      m_TileSpriteIndex: 12
      m_TileMatrixIndex: 0
      m_TileColorIndex: 0
      m_TileObjectToInstantiateIndex: 65535
      m_AllTileFlags: 1073741825
  - first: {x: 3, y: -1, z: 0}
    second:
      serializedVersion: 2
      m_TileIndex: 13
      m_TileSpriteIndex: 13
      m_TileMatrixIndex: 0
      m_TileColorIndex: 0
      m_TileObjectToInstantiateIndex: 65535
      m_AllTileFlags: 1073741825
  - first: {x: 4, y: -1, z: 0}
    second:
      serializedVersion: 2
      m_TileIndex: 14
      m_TileSpriteIndex: 14
      m_TileMatrixIndex: 0
      m_TileColorIndex: 0
      m_TileObjectToInstantiateIndex: 65535
      m_AllTileFlags: 1073741825
  - first: {x: 5, y: -1, z: 0}
    second:
      serializedVersion: 2
      m_TileIndex: 15
      m_TileSpriteIndex: 15
      m_TileMatrixIndex: 0
      m_TileColorIndex: 0
      m_TileObjectToInstantiateIndex: 65535
      m_AllTileFlags: 1073741825
  - first: {x: 6, y: -1, z: 0}
    second:
      serializedVersion: 2
      m_TileIndex: 16
      m_TileSpriteIndex: 16
      m_TileMatrixIndex: 0
      m_TileColorIndex: 0
      m_TileObjectToInstantiateIndex: 65535
      m_AllTileFlags: 1073741825
  - first: {x: 7, y: -1, z: 0}
    second:
      serializedVersion: 2
      m_TileIndex: 17
      m_TileSpriteIndex: 17
      m_TileMatrixIndex: 0
      m_TileColorIndex: 0
      m_TileObjectToInstantiateIndex: 65535
      m_AllTileFlags: 1073741825
  - first: {x: -1, y: 0, z: 0}
    second:
      serializedVersion: 2
      m_TileIndex: 0
      m_TileSpriteIndex: 9
      m_TileMatrixIndex: 0
      m_TileColorIndex: 0
      m_TileObjectToInstantiateIndex: 65535
      m_AllTileFlags: 1073741825
  - first: {x: 0, y: 0, z: 0}
    second:
      serializedVersion: 2
      m_TileIndex: 1
      m_TileSpriteIndex: 1
      m_TileMatrixIndex: 0
      m_TileColorIndex: 0
      m_TileObjectToInstantiateIndex: 65535
      m_AllTileFlags: 1073741825
  - first: {x: 1, y: 0, z: 0}
    second:
      serializedVersion: 2
      m_TileIndex: 2
      m_TileSpriteIndex: 2
      m_TileMatrixIndex: 0
      m_TileColorIndex: 0
      m_TileObjectToInstantiateIndex: 65535
      m_AllTileFlags: 1073741825
  - first: {x: 2, y: 0, z: 0}
    second:
      serializedVersion: 2
      m_TileIndex: 3
      m_TileSpriteIndex: 3
      m_TileMatrixIndex: 0
      m_TileColorIndex: 0
      m_TileObjectToInstantiateIndex: 65535
      m_AllTileFlags: 1073741825
  - first: {x: 3, y: 0, z: 0}
    second:
      serializedVersion: 2
      m_TileIndex: 4
      m_TileSpriteIndex: 4
      m_TileMatrixIndex: 0
      m_TileColorIndex: 0
      m_TileObjectToInstantiateIndex: 65535
      m_AllTileFlags: 1073741825
  - first: {x: 4, y: 0, z: 0}
    second:
      serializedVersion: 2
      m_TileIndex: 5
      m_TileSpriteIndex: 5
      m_TileMatrixIndex: 0
      m_TileColorIndex: 0
      m_TileObjectToInstantiateIndex: 65535
      m_AllTileFlags: 1073741825
  - first: {x: 5, y: 0, z: 0}
    second:
      serializedVersion: 2
      m_TileIndex: 6
      m_TileSpriteIndex: 6
      m_TileMatrixIndex: 0
      m_TileColorIndex: 0
      m_TileObjectToInstantiateIndex: 65535
      m_AllTileFlags: 1073741825
  - first: {x: 6, y: 0, z: 0}
    second:
      serializedVersion: 2
      m_TileIndex: 7
      m_TileSpriteIndex: 7
      m_TileMatrixIndex: 0
      m_TileColorIndex: 0
      m_TileObjectToInstantiateIndex: 65535
      m_AllTileFlags: 1073741825
  - first: {x: 7, y: 0, z: 0}
    second:
      serializedVersion: 2
      m_TileIndex: 8
      m_TileSpriteIndex: 8
      m_TileMatrixIndex: 0
      m_TileColorIndex: 0
      m_TileObjectToInstantiateIndex: 65535
      m_AllTileFlags: 1073741825
  - first: {x: 2, y: 6, z: 0}
    second:
      serializedVersion: 2
      m_TileIndex: 73
      m_TileSpriteIndex: 73
      m_TileMatrixIndex: 0
      m_TileColorIndex: 0
      m_TileObjectToInstantiateIndex: 65535
      m_AllTileFlags: 1073741825
  - first: {x: 0, y: 9, z: 0}
    second:
      serializedVersion: 2
      m_TileIndex: 73
      m_TileSpriteIndex: 73
      m_TileMatrixIndex: 0
      m_TileColorIndex: 0
      m_TileObjectToInstantiateIndex: 65535
      m_AllTileFlags: 1073741825
  m_AnimatedTiles: {}
  m_TileAssetArray:
  - m_RefCount: 1
    m_Data: {fileID: 11400000, guid: 82ef18c09ab729c48a6a35c807228980, type: 2}
  - m_RefCount: 1
    m_Data: {fileID: 11400000, guid: a3acac9d35e93064d96cd1e801f6f7f7, type: 2}
  - m_RefCount: 1
    m_Data: {fileID: 11400000, guid: 9f44d406f1a524945a3f5dff3731ddb1, type: 2}
  - m_RefCount: 1
    m_Data: {fileID: 11400000, guid: 66b1194f88c075f44a1b6ef770a56742, type: 2}
  - m_RefCount: 1
    m_Data: {fileID: 11400000, guid: de5a0b040c77cce48a0c4638062f173e, type: 2}
  - m_RefCount: 1
    m_Data: {fileID: 11400000, guid: 45ff65d00396756488ae4923067e84fb, type: 2}
  - m_RefCount: 1
    m_Data: {fileID: 11400000, guid: 290438a827eb78b4d8832960a6c4329c, type: 2}
  - m_RefCount: 1
    m_Data: {fileID: 11400000, guid: 74b88fc2c634f1447bf24df14a234d2d, type: 2}
  - m_RefCount: 1
    m_Data: {fileID: 11400000, guid: 27619c4a62403ba45b695163a18b68d3, type: 2}
  - m_RefCount: 1
    m_Data: {fileID: 11400000, guid: 5217b7eeeb9c6ef459a3c935f35f1e84, type: 2}
  - m_RefCount: 1
    m_Data: {fileID: 11400000, guid: 6b04343c5865146459f19ea4656c3157, type: 2}
  - m_RefCount: 1
    m_Data: {fileID: 11400000, guid: 140faae5aeb817d4db8ab28917dee10e, type: 2}
  - m_RefCount: 1
    m_Data: {fileID: 11400000, guid: b8ac2c3a93a7a9145ba60793cee9d935, type: 2}
  - m_RefCount: 1
    m_Data: {fileID: 11400000, guid: f07c9c43b53e3654e9c1bd95373321d7, type: 2}
  - m_RefCount: 1
    m_Data: {fileID: 11400000, guid: d00fbb0057e8a49449e1b0477b960c5b, type: 2}
  - m_RefCount: 1
    m_Data: {fileID: 11400000, guid: d453fe8dc17a06645ad31fc6d262d78d, type: 2}
  - m_RefCount: 1
    m_Data: {fileID: 11400000, guid: 0215df30d8afb264dab764dafd3f6dda, type: 2}
  - m_RefCount: 1
    m_Data: {fileID: 11400000, guid: dab801ffe447dba4980c7b8dfe101115, type: 2}
  - m_RefCount: 1
    m_Data: {fileID: 11400000, guid: f223fb7a3eb8e3044ae3f431a0640aa9, type: 2}
  - m_RefCount: 1
    m_Data: {fileID: 11400000, guid: 351bf3edd5887d046a7d312b6dbcadc7, type: 2}
  - m_RefCount: 1
    m_Data: {fileID: 11400000, guid: c43779be787ec4149aada1edf0c6cc28, type: 2}
  - m_RefCount: 1
    m_Data: {fileID: 11400000, guid: e123f6db63ee3c74ea363211cd4713f9, type: 2}
  - m_RefCount: 0
    m_Data: {fileID: 0}
  - m_RefCount: 1
    m_Data: {fileID: 11400000, guid: 5f5d88bb8b081c644828beade05c76c4, type: 2}
  - m_RefCount: 1
    m_Data: {fileID: 11400000, guid: 58a08aeea63351a4da3ef293c54b50ee, type: 2}
  - m_RefCount: 1
    m_Data: {fileID: 11400000, guid: 8360c2adc88b7a64c915e117372d230b, type: 2}
  - m_RefCount: 1
    m_Data: {fileID: 11400000, guid: c3ed511f7a083764ab7e9997ec5cdf44, type: 2}
  - m_RefCount: 1
    m_Data: {fileID: 11400000, guid: edad5e38e478d5c429924bc0836c146c, type: 2}
  - m_RefCount: 1
    m_Data: {fileID: 11400000, guid: 90b7c234d9bf3e341b28387a1b28400b, type: 2}
  - m_RefCount: 1
    m_Data: {fileID: 11400000, guid: c7df4693f4536fb4e847356e7f4588af, type: 2}
  - m_RefCount: 1
    m_Data: {fileID: 11400000, guid: ac5c5435615b6044b921ab06322391bd, type: 2}
  - m_RefCount: 1
    m_Data: {fileID: 11400000, guid: caf3d1b0909f3444282bac106bb0a3c3, type: 2}
  - m_RefCount: 1
    m_Data: {fileID: 11400000, guid: 6d8df785c81691c40a59365654d0d61a, type: 2}
  - m_RefCount: 1
    m_Data: {fileID: 11400000, guid: 75d964b9563c4764e9f81c6be1c401b7, type: 2}
  - m_RefCount: 1
    m_Data: {fileID: 11400000, guid: b45244f52cc97f646b71ab0bce010857, type: 2}
  - m_RefCount: 1
    m_Data: {fileID: 11400000, guid: cb2522440d244c14aa3df42ed9607eba, type: 2}
  - m_RefCount: 1
    m_Data: {fileID: 11400000, guid: 5be8a04d77f58924b9ac37ea8b013aa6, type: 2}
  - m_RefCount: 1
    m_Data: {fileID: 11400000, guid: 1f353ce1573e846499fcdafdf302b4a4, type: 2}
  - m_RefCount: 1
    m_Data: {fileID: 11400000, guid: 40d9c1f4d50106642a4f43f055b1a0ba, type: 2}
  - m_RefCount: 1
    m_Data: {fileID: 11400000, guid: ab5880e526f232540ae41e324fa23e4f, type: 2}
  - m_RefCount: 1
    m_Data: {fileID: 11400000, guid: 14a7a78863f715b4eba94a3acd5eb1dc, type: 2}
  - m_RefCount: 1
    m_Data: {fileID: 11400000, guid: 7b40bb815f53dab4f83937d37e15eef1, type: 2}
  - m_RefCount: 1
    m_Data: {fileID: 11400000, guid: 94dd04617f581be468ed4219e5fb9492, type: 2}
  - m_RefCount: 1
    m_Data: {fileID: 11400000, guid: 8ec2cf505a5876e47a57c5210ed4d905, type: 2}
  - m_RefCount: 1
    m_Data: {fileID: 11400000, guid: df0e2b48078e4e84d8128a5fff1c9169, type: 2}
  - m_RefCount: 1
    m_Data: {fileID: 11400000, guid: e0dddbee52ee183439d857ffc5749d31, type: 2}
  - m_RefCount: 1
    m_Data: {fileID: 11400000, guid: ecb0d7fc40588dc49bbe161ed688b220, type: 2}
  - m_RefCount: 1
    m_Data: {fileID: 11400000, guid: f51031f92b76b324f8a08c76720e1977, type: 2}
  - m_RefCount: 1
    m_Data: {fileID: 11400000, guid: 5ee377c3e0b1dff4186e2bcd5e8f3faa, type: 2}
  - m_RefCount: 1
    m_Data: {fileID: 11400000, guid: e59773db8593a5a459d927c3c02fb442, type: 2}
  - m_RefCount: 1
    m_Data: {fileID: 11400000, guid: dbf1d5c5315ac4642b377483de1fdd15, type: 2}
  - m_RefCount: 1
    m_Data: {fileID: 11400000, guid: 0e882daeac5920c499b95296368b3d3a, type: 2}
  - m_RefCount: 1
    m_Data: {fileID: 11400000, guid: 365a0600ede98c24abfd27e2113f2c4a, type: 2}
  - m_RefCount: 1
    m_Data: {fileID: 11400000, guid: 9d2b3fdd9622ef146b73d027a2f8a1cf, type: 2}
  - m_RefCount: 1
    m_Data: {fileID: 11400000, guid: 60d8155b63553004cbb011c66cf8a4f0, type: 2}
  - m_RefCount: 1
    m_Data: {fileID: 11400000, guid: dc6730541d6bd004c9e453218c8ba260, type: 2}
  - m_RefCount: 1
    m_Data: {fileID: 11400000, guid: 8e2e87e4b69a68941bb9762c45b5c49b, type: 2}
  - m_RefCount: 1
    m_Data: {fileID: 11400000, guid: a8a36dc5e1b91dc46aa279e9d62639ae, type: 2}
  - m_RefCount: 1
    m_Data: {fileID: 11400000, guid: 25b3788b0e5cbbb46892f97b50ed97bb, type: 2}
  - m_RefCount: 1
    m_Data: {fileID: 11400000, guid: 052eecbe9c17e16409bbbc51dbad9061, type: 2}
  - m_RefCount: 1
    m_Data: {fileID: 11400000, guid: cc6f4e2b92654544eba0a753947f9d8a, type: 2}
  - m_RefCount: 1
    m_Data: {fileID: 11400000, guid: 821d38f8841a36646b305d0eb8ed8a5b, type: 2}
  - m_RefCount: 1
    m_Data: {fileID: 11400000, guid: f37b0553c7428aa42a00778687a3e868, type: 2}
  - m_RefCount: 1
    m_Data: {fileID: 11400000, guid: f66e3d770e92f0143b367c8f3d1a060a, type: 2}
  - m_RefCount: 1
    m_Data: {fileID: 11400000, guid: 829dbbe64e1a8f84d815bb5b4737ff60, type: 2}
  - m_RefCount: 1
    m_Data: {fileID: 11400000, guid: 5f2471a239d7b8e47baf667b70679e87, type: 2}
  - m_RefCount: 1
    m_Data: {fileID: 11400000, guid: 5a7f3c383bab06c46b139016d0dd6042, type: 2}
  - m_RefCount: 1
    m_Data: {fileID: 11400000, guid: 3428832e824ca53458b3d510aa6ffd72, type: 2}
  - m_RefCount: 1
    m_Data: {fileID: 11400000, guid: dbdc173525cbfca42b117f8a3a0cd70d, type: 2}
  - m_RefCount: 1
    m_Data: {fileID: 11400000, guid: bcd95a7a67e4f2a4c81650c07a528b19, type: 2}
  - m_RefCount: 1
    m_Data: {fileID: 11400000, guid: f20a9021642359c4e876628249fc01f2, type: 2}
  - m_RefCount: 1
    m_Data: {fileID: 11400000, guid: acc2cf8ca91f1474487abded17360dc8, type: 2}
  - m_RefCount: 1
    m_Data: {fileID: 11400000, guid: 418351ba5bcd8a148bd18f8a4bf75415, type: 2}
  - m_RefCount: 2
    m_Data: {fileID: 11400000, guid: 6cfc1f3e82397a046954ae703b42eaf6, type: 2}
  m_TileSpriteArray:
  - m_RefCount: 0
    m_Data: {fileID: 0}
  - m_RefCount: 1
    m_Data: {fileID: 21300000, guid: 7b23318dd2c9a324eaf63cacb8404c4a, type: 3}
  - m_RefCount: 1
    m_Data: {fileID: 21300000, guid: 3c5abe0bfa500fc49a719c8e0c22169f, type: 3}
  - m_RefCount: 1
    m_Data: {fileID: 21300000, guid: 754f37647a784524285e2273ed7edb63, type: 3}
  - m_RefCount: 1
    m_Data: {fileID: 21300000, guid: 1480258b361717248826ab3d0deec05e, type: 3}
  - m_RefCount: 1
    m_Data: {fileID: 21300000, guid: 021316e783e6eaf45b1ca22b9e7af3f7, type: 3}
  - m_RefCount: 1
    m_Data: {fileID: 21300000, guid: e8d368d19f9a83743b9b5c6a886cc8e4, type: 3}
  - m_RefCount: 1
    m_Data: {fileID: 21300000, guid: 3957acbdc35c89243a71d9df94aace99, type: 3}
  - m_RefCount: 1
    m_Data: {fileID: 21300000, guid: f8a6cade2de4b924ab992a249dfd5cb6, type: 3}
  - m_RefCount: 1
    m_Data: {fileID: 21300000, guid: 7da83475aac9e034ca7080ba7e1ad11e, type: 3}
  - m_RefCount: 1
    m_Data: {fileID: 21300000, guid: 356029c7e5b7773458c7692b85863cc1, type: 3}
  - m_RefCount: 1
    m_Data: {fileID: 21300000, guid: 69d4e9910f707cd41a0dd06b96e629c4, type: 3}
  - m_RefCount: 1
    m_Data: {fileID: 21300000, guid: 6173684f62340814d9ed59801cc19e3d, type: 3}
  - m_RefCount: 1
    m_Data: {fileID: 21300000, guid: 2742af360fe099e438c07c9abe3b31e4, type: 3}
  - m_RefCount: 1
    m_Data: {fileID: 21300000, guid: 20a807654a2b1094aa6eb731fb72acb2, type: 3}
  - m_RefCount: 1
    m_Data: {fileID: 21300000, guid: dd6651ccca5567f4b8c16dfa8bdf65b3, type: 3}
  - m_RefCount: 1
    m_Data: {fileID: 21300000, guid: 2b7298a1b010a4148b88b1a56b58ce0e, type: 3}
  - m_RefCount: 1
    m_Data: {fileID: 21300000, guid: 04ba78b9655fd27438b3e50bb313f3bd, type: 3}
  - m_RefCount: 1
    m_Data: {fileID: 21300000, guid: 5cc0b9a525b6e5741afdd1b6c630ec20, type: 3}
  - m_RefCount: 1
    m_Data: {fileID: 21300000, guid: eaea21a0ecf7ab546bc0ffb167e76742, type: 3}
  - m_RefCount: 1
    m_Data: {fileID: 21300000, guid: 18ede70706904424993c8f7534aa520e, type: 3}
  - m_RefCount: 1
    m_Data: {fileID: 21300000, guid: 970e13b40116fb14ea9b45c75e73ccdf, type: 3}
  - m_RefCount: 1
    m_Data: {fileID: 21300000, guid: 02d37ebceba9688449f2464ab28ad7f2, type: 3}
  - m_RefCount: 1
    m_Data: {fileID: 21300000, guid: a4f299a6a56ce414582ca252c5acfb60, type: 3}
  - m_RefCount: 1
    m_Data: {fileID: 21300000, guid: b9da58fb9ac1ccb49bdd2f6479e8b9a5, type: 3}
  - m_RefCount: 1
    m_Data: {fileID: 21300000, guid: b0c5d1428c20ada4c8f331c7940b2761, type: 3}
  - m_RefCount: 1
    m_Data: {fileID: 21300000, guid: ca69fb7e066954f4396a190d2e8ebdbb, type: 3}
  - m_RefCount: 1
    m_Data: {fileID: 21300000, guid: 0729c3dbf14bb9248affc3e9ffc26722, type: 3}
  - m_RefCount: 1
    m_Data: {fileID: 21300000, guid: 694170c2a8b63304d814b2476b20bc05, type: 3}
  - m_RefCount: 1
    m_Data: {fileID: 21300000, guid: 3270a02b5b871694f8e2fcd04c9256e1, type: 3}
  - m_RefCount: 1
    m_Data: {fileID: 21300000, guid: ba86c3f75188fc943b8bb28ccc9425ad, type: 3}
  - m_RefCount: 1
    m_Data: {fileID: 21300000, guid: 40ce44e9d66fd2a4d82c1e9df4e5f909, type: 3}
  - m_RefCount: 1
    m_Data: {fileID: 21300000, guid: d2cf099cb16ecc44a96bd74a31ac7184, type: 3}
  - m_RefCount: 1
    m_Data: {fileID: 21300000, guid: ff69f74c83b3d1f418274ccdddf1ffd9, type: 3}
  - m_RefCount: 1
    m_Data: {fileID: 21300000, guid: 0edda2c002836f345992f1c86d04b639, type: 3}
  - m_RefCount: 1
    m_Data: {fileID: 21300000, guid: 424bc396b0561ea478708667f150fe68, type: 3}
  - m_RefCount: 1
    m_Data: {fileID: 21300000, guid: af540812e3957554f81e7fe28d68e7b8, type: 3}
  - m_RefCount: 1
    m_Data: {fileID: 21300000, guid: 54ede258e024cb44bbb474791105c6ee, type: 3}
  - m_RefCount: 1
    m_Data: {fileID: 21300000, guid: 5d32ad86b6871b74b96fe83a16abfc6a, type: 3}
  - m_RefCount: 1
    m_Data: {fileID: 21300000, guid: 52039bd0917ee5c42a1697f16bda867e, type: 3}
  - m_RefCount: 1
    m_Data: {fileID: 21300000, guid: 8f12b8fffa121cd4097c6227f3cbb6aa, type: 3}
  - m_RefCount: 1
    m_Data: {fileID: 21300000, guid: f098a7c742fb1b748ab8034dff58948e, type: 3}
  - m_RefCount: 1
    m_Data: {fileID: 21300000, guid: ea8a97f8af10fb844b988ce72820086b, type: 3}
  - m_RefCount: 1
    m_Data: {fileID: 21300000, guid: 2014b5a268d00874482f880f56973eea, type: 3}
  - m_RefCount: 1
    m_Data: {fileID: 21300000, guid: df42e8efc057b044da23089bc6db91eb, type: 3}
  - m_RefCount: 1
    m_Data: {fileID: 21300000, guid: dbcf39fd7b557944b9260e8efe6dc69c, type: 3}
  - m_RefCount: 1
    m_Data: {fileID: 21300000, guid: fe64b481f5aab9e458b8666ae16fda98, type: 3}
  - m_RefCount: 1
    m_Data: {fileID: 21300000, guid: 413414c0a41802b41bc2a0fe7dac5fa4, type: 3}
  - m_RefCount: 1
    m_Data: {fileID: 21300000, guid: 2f6c3a42c897dd4429ad2f98db4d97bd, type: 3}
  - m_RefCount: 1
    m_Data: {fileID: 21300000, guid: 0f58d50ce7264314ab8c0f606db3a92f, type: 3}
  - m_RefCount: 1
    m_Data: {fileID: 21300000, guid: f7338b58c371a154cbf92949e91162ee, type: 3}
  - m_RefCount: 1
    m_Data: {fileID: 21300000, guid: a384c95708679ef4290e4f635518aca6, type: 3}
  - m_RefCount: 1
    m_Data: {fileID: 21300000, guid: 043d2f6ff0d17f44c9168b682bb1eb1c, type: 3}
  - m_RefCount: 1
    m_Data: {fileID: 21300000, guid: 4f50c42a0a7db0a47bf5b65e6406933e, type: 3}
  - m_RefCount: 1
    m_Data: {fileID: 21300000, guid: 910429533d956f84cb297e1bab0c9f8b, type: 3}
  - m_RefCount: 1
    m_Data: {fileID: 21300000, guid: 41c0f2c4fa6976b4290c79dee9d02ad1, type: 3}
  - m_RefCount: 1
    m_Data: {fileID: 21300000, guid: fcf08ea8c43f5cb48b55f3eec57842c6, type: 3}
  - m_RefCount: 1
    m_Data: {fileID: 21300000, guid: a4d6b5a8068aacb408f026c2c6ed7028, type: 3}
  - m_RefCount: 1
    m_Data: {fileID: 21300000, guid: bf22f352acfdc8d4ba899314c0021f1d, type: 3}
  - m_RefCount: 1
    m_Data: {fileID: 21300000, guid: ecd8fd1627dba234bbf08f0e6e9e8314, type: 3}
  - m_RefCount: 1
    m_Data: {fileID: 21300000, guid: a5a35a6dd266366488ecb05a16748167, type: 3}
  - m_RefCount: 1
    m_Data: {fileID: 21300000, guid: a1417b94d16980243bee78ff624624ed, type: 3}
  - m_RefCount: 1
    m_Data: {fileID: 21300000, guid: 76ca3689530907e43aae7765d38af9d5, type: 3}
  - m_RefCount: 1
    m_Data: {fileID: 21300000, guid: df20919ab5ca3304cab6caf490103b14, type: 3}
  - m_RefCount: 1
    m_Data: {fileID: 21300000, guid: f3fe873986ebe4c4ab346f30aefc8da1, type: 3}
  - m_RefCount: 1
    m_Data: {fileID: 21300000, guid: 14f32ee71aeaa9d45a479523e4147d94, type: 3}
  - m_RefCount: 1
    m_Data: {fileID: 21300000, guid: 68c19f544b7d93044b2dcebed018748a, type: 3}
  - m_RefCount: 1
    m_Data: {fileID: 21300000, guid: 5d99997196b15c84783c8b9d1cfca5c1, type: 3}
  - m_RefCount: 1
    m_Data: {fileID: 21300000, guid: f051a3379cfbc1f42b26358a75199e66, type: 3}
  - m_RefCount: 1
    m_Data: {fileID: 21300000, guid: 07ae0aaaa7bd69c4bb62d2dc481f0266, type: 3}
  - m_RefCount: 1
    m_Data: {fileID: 21300000, guid: b14cb25dc8f892944b13174aaf4599db, type: 3}
  - m_RefCount: 1
    m_Data: {fileID: 21300000, guid: 935dffd6e99fe4d4189a4e6d96e690db, type: 3}
  - m_RefCount: 1
    m_Data: {fileID: 21300000, guid: fc98db79ba92d05409e24a302494bde9, type: 3}
  - m_RefCount: 2
    m_Data: {fileID: 21300020, guid: db2df9fec93d8b344b25da2ce0b7f186, type: 3}
  m_TileMatrixArray:
  - m_RefCount: 74
    m_Data:
      e00: 1
      e01: 0
      e02: 0
      e03: 0
      e10: 0
      e11: 1
      e12: 0
      e13: 0
      e20: 0
      e21: 0
      e22: 1
      e23: 0
      e30: 0
      e31: 0
      e32: 0
      e33: 1
  m_TileColorArray:
  - m_RefCount: 74
    m_Data: {r: 1, g: 1, b: 1, a: 1}
  m_TileObjectToInstantiateArray: []
  m_AnimationFrameRate: 1
  m_Color: {r: 1, g: 1, b: 1, a: 1}
  m_Origin: {x: -1, y: -8, z: 0}
  m_Size: {x: 9, y: 18, z: 1}
  m_TileAnchor: {x: 0.5, y: 0.5, z: 0}
  m_TileOrientation: 0
  m_TileOrientationMatrix:
    e00: 1
    e01: 0
    e02: 0
    e03: 0
    e10: 0
    e11: 1
    e12: 0
    e13: 0
    e20: 0
    e21: 0
    e22: 1
    e23: 0
    e30: 0
    e31: 0
    e32: 0
    e33: 1
--- !u!483693784 &5695079819269104045
TilemapRenderer:
  m_ObjectHideFlags: 0
  m_CorrespondingSourceObject: {fileID: 0}
  m_PrefabInstance: {fileID: 0}
  m_PrefabAsset: {fileID: 0}
  m_GameObject: {fileID: 933126619797393702}
  m_Enabled: 0
  m_CastShadows: 0
  m_ReceiveShadows: 0
  m_DynamicOccludee: 0
  m_MotionVectors: 1
  m_LightProbeUsage: 0
  m_ReflectionProbeUsage: 0
  m_RayTracingMode: 0
  m_RenderingLayerMask: 1
  m_RendererPriority: 0
  m_Materials:
  - {fileID: 10754, guid: 0000000000000000f000000000000000, type: 0}
  m_StaticBatchInfo:
    firstSubMesh: 0
    subMeshCount: 0
  m_StaticBatchRoot: {fileID: 0}
  m_ProbeAnchor: {fileID: 0}
  m_LightProbeVolumeOverride: {fileID: 0}
  m_ScaleInLightmap: 1
  m_ReceiveGI: 1
  m_PreserveUVs: 0
  m_IgnoreNormalsForChartDetection: 0
  m_ImportantGI: 0
  m_StitchLightmapSeams: 1
  m_SelectedEditorRenderState: 0
  m_MinimumChartSize: 4
  m_AutoUVMaxDistance: 0.5
  m_AutoUVMaxAngle: 89
  m_LightmapParameters: {fileID: 0}
  m_SortingLayerID: 0
  m_SortingLayer: 0
  m_SortingOrder: 0
  m_ChunkSize: {x: 32, y: 32, z: 32}
  m_ChunkCullingBounds: {x: 0.78, y: 0.78, z: 0}
  m_MaxChunkCount: 16
  m_MaxFrameAge: 16
  m_SortOrder: 0
  m_Mode: 0
  m_DetectChunkCullingBounds: 0
  m_MaskInteraction: 0
--- !u!1 &7405840716982623279
GameObject:
  m_ObjectHideFlags: 0
  m_CorrespondingSourceObject: {fileID: 0}
  m_PrefabInstance: {fileID: 0}
  m_PrefabAsset: {fileID: 0}
  serializedVersion: 6
  m_Component:
  - component: {fileID: 4053911139368754626}
  - component: {fileID: 3865025745890805775}
  m_Layer: 31
  m_Name: Castle
  m_TagString: Untagged
  m_Icon: {fileID: 0}
  m_NavMeshLayer: 0
  m_StaticEditorFlags: 0
  m_IsActive: 1
--- !u!4 &4053911139368754626
Transform:
  m_ObjectHideFlags: 0
  m_CorrespondingSourceObject: {fileID: 0}
  m_PrefabInstance: {fileID: 0}
  m_PrefabAsset: {fileID: 0}
  m_GameObject: {fileID: 7405840716982623279}
  m_LocalRotation: {x: 0, y: 0, z: 0, w: 1}
  m_LocalPosition: {x: 0, y: 0, z: 0}
  m_LocalScale: {x: 1, y: 1, z: 1}
  m_Children:
  - {fileID: 5788192515799121816}
  m_Father: {fileID: 0}
  m_RootOrder: 0
  m_LocalEulerAnglesHint: {x: 0, y: 0, z: 0}
--- !u!156049354 &3865025745890805775
Grid:
  m_ObjectHideFlags: 0
  m_CorrespondingSourceObject: {fileID: 0}
  m_PrefabInstance: {fileID: 0}
  m_PrefabAsset: {fileID: 0}
  m_GameObject: {fileID: 7405840716982623279}
  m_Enabled: 1
  m_CellSize: {x: 2.56, y: 2.56, z: 0}
  m_CellGap: {x: 0, y: 0, z: 0}
  m_CellLayout: 0
  m_CellSwizzle: 0
--- !u!114 &-7575140034330175416
MonoBehaviour:
  m_ObjectHideFlags: 0
  m_CorrespondingSourceObject: {fileID: 0}
  m_PrefabInstance: {fileID: 0}
  m_PrefabAsset: {fileID: 0}
  m_GameObject: {fileID: 0}
  m_Enabled: 1
  m_EditorHideFlags: 0
  m_Script: {fileID: 12395, guid: 0000000000000000e000000000000000, type: 0}
  m_Name: Palette Settings
  m_EditorClassIdentifier: 
  cellSizing: 0
