%YAML 1.1
%TAG !u! tag:unity3d.com,2011:
--- !u!1045 &1
EditorBuildSettings:
  m_ObjectHideFlags: 0
  serializedVersion: 2
  m_Scenes:
  - enabled: 1
    path: Assets/Scenes/MainMenu.unity
    guid: 0bd265c714c7fb846ba2c387c4af2633
  - enabled: 1
    path: Assets/Scenes/Level_1.unity
    guid: 2cda990e2423bbf4892e6590ba056729
  - enabled: 1
    path: Assets/Scenes/Level_2.unity
    guid: 0035fed6f9a6b314f93df614d07cb334
  m_configObjects: {}
