%YAML 1.1
%TAG !u! tag:unity3d.com,2011:
--- !u!1 &8076178271888093935
GameObject:
  m_ObjectHideFlags: 0
  m_CorrespondingSourceObject: {fileID: 0}
  m_PrefabInstance: {fileID: 0}
  m_PrefabAsset: {fileID: 0}
  serializedVersion: 6
  m_Component:
  - component: {fileID: 1933626079449904498}
  - component: {fileID: 8684822425196622670}
  m_Layer: 31
  m_Name: FreePalet
  m_TagString: Untagged
  m_Icon: {fileID: 0}
  m_NavMeshLayer: 0
  m_StaticEditorFlags: 0
  m_IsActive: 1
--- !u!4 &1933626079449904498
Transform:
  m_ObjectHideFlags: 0
  m_CorrespondingSourceObject: {fileID: 0}
  m_PrefabInstance: {fileID: 0}
  m_PrefabAsset: {fileID: 0}
  m_GameObject: {fileID: 8076178271888093935}
  m_LocalRotation: {x: 0, y: 0, z: 0, w: 1}
  m_LocalPosition: {x: 0, y: 0, z: 0}
  m_LocalScale: {x: 1, y: 1, z: 1}
  m_Children:
  - {fileID: 4705822675701092654}
  m_Father: {fileID: 0}
  m_RootOrder: 0
  m_LocalEulerAnglesHint: {x: 0, y: 0, z: 0}
--- !u!156049354 &8684822425196622670
Grid:
  m_ObjectHideFlags: 0
  m_CorrespondingSourceObject: {fileID: 0}
  m_PrefabInstance: {fileID: 0}
  m_PrefabAsset: {fileID: 0}
  m_GameObject: {fileID: 8076178271888093935}
  m_Enabled: 1
  m_CellSize: {x: 1.28, y: 1.28, z: 0}
  m_CellGap: {x: 0, y: 0, z: 0}
  m_CellLayout: 0
  m_CellSwizzle: 0
--- !u!1 &8153245933429780425
GameObject:
  m_ObjectHideFlags: 0
  m_CorrespondingSourceObject: {fileID: 0}
  m_PrefabInstance: {fileID: 0}
  m_PrefabAsset: {fileID: 0}
  serializedVersion: 6
  m_Component:
  - component: {fileID: 4705822675701092654}
  - component: {fileID: 4714632216686233158}
  - component: {fileID: 2938877938520974588}
  m_Layer: 31
  m_Name: Layer1
  m_TagString: Untagged
  m_Icon: {fileID: 0}
  m_NavMeshLayer: 0
  m_StaticEditorFlags: 0
  m_IsActive: 1
--- !u!4 &4705822675701092654
Transform:
  m_ObjectHideFlags: 0
  m_CorrespondingSourceObject: {fileID: 0}
  m_PrefabInstance: {fileID: 0}
  m_PrefabAsset: {fileID: 0}
  m_GameObject: {fileID: 8153245933429780425}
  m_LocalRotation: {x: -0, y: -0, z: -0, w: 1}
  m_LocalPosition: {x: 0, y: 0, z: 0}
  m_LocalScale: {x: 1, y: 1, z: 1}
  m_Children: []
  m_Father: {fileID: 1933626079449904498}
  m_RootOrder: 0
  m_LocalEulerAnglesHint: {x: 0, y: 0, z: 0}
--- !u!1839735485 &4714632216686233158
Tilemap:
  m_ObjectHideFlags: 0
  m_CorrespondingSourceObject: {fileID: 0}
  m_PrefabInstance: {fileID: 0}
  m_PrefabAsset: {fileID: 0}
  m_GameObject: {fileID: 8153245933429780425}
  m_Enabled: 1
  m_Tiles:
  - first: {x: -1, y: -7, z: 0}
    second:
      serializedVersion: 2
      m_TileIndex: 34
      m_TileSpriteIndex: 18
      m_TileMatrixIndex: 0
      m_TileColorIndex: 1
      m_TileObjectToInstantiateIndex: 65535
      m_AllTileFlags: 1073741827
  - first: {x: 0, y: -7, z: 0}
    second:
      serializedVersion: 2
      m_TileIndex: 35
      m_TileSpriteIndex: 19
      m_TileMatrixIndex: 0
      m_TileColorIndex: 2
      m_TileObjectToInstantiateIndex: 65535
      m_AllTileFlags: 1073741827
  - first: {x: 1, y: -7, z: 0}
    second:
      serializedVersion: 2
      m_TileIndex: 36
      m_TileSpriteIndex: 20
      m_TileMatrixIndex: 0
      m_TileColorIndex: 3
      m_TileObjectToInstantiateIndex: 65535
      m_AllTileFlags: 1073741827
  - first: {x: -1, y: -6, z: 0}
    second:
      serializedVersion: 2
      m_TileIndex: 29
      m_TileSpriteIndex: 21
      m_TileMatrixIndex: 0
      m_TileColorIndex: 4
      m_TileObjectToInstantiateIndex: 65535
      m_AllTileFlags: 1073741827
  - first: {x: 0, y: -6, z: 0}
    second:
      serializedVersion: 2
      m_TileIndex: 30
      m_TileSpriteIndex: 22
      m_TileMatrixIndex: 0
      m_TileColorIndex: 5
      m_TileObjectToInstantiateIndex: 65535
      m_AllTileFlags: 1073741827
  - first: {x: 1, y: -6, z: 0}
    second:
      serializedVersion: 2
      m_TileIndex: 31
      m_TileSpriteIndex: 23
      m_TileMatrixIndex: 0
      m_TileColorIndex: 6
      m_TileObjectToInstantiateIndex: 65535
      m_AllTileFlags: 1073741827
  - first: {x: 2, y: -6, z: 0}
    second:
      serializedVersion: 2
      m_TileIndex: 32
      m_TileSpriteIndex: 24
      m_TileMatrixIndex: 0
      m_TileColorIndex: 7
      m_TileObjectToInstantiateIndex: 65535
      m_AllTileFlags: 1073741827
  - first: {x: 3, y: -6, z: 0}
    second:
      serializedVersion: 2
      m_TileIndex: 33
      m_TileSpriteIndex: 25
      m_TileMatrixIndex: 0
      m_TileColorIndex: 8
      m_TileObjectToInstantiateIndex: 65535
      m_AllTileFlags: 1073741827
  - first: {x: -1, y: -5, z: 0}
    second:
      serializedVersion: 2
      m_TileIndex: 24
      m_TileSpriteIndex: 26
      m_TileMatrixIndex: 0
      m_TileColorIndex: 9
      m_TileObjectToInstantiateIndex: 65535
      m_AllTileFlags: 1073741827
  - first: {x: 0, y: -5, z: 0}
    second:
      serializedVersion: 2
      m_TileIndex: 25
      m_TileSpriteIndex: 27
      m_TileMatrixIndex: 0
      m_TileColorIndex: 10
      m_TileObjectToInstantiateIndex: 65535
      m_AllTileFlags: 1073741827
  - first: {x: 1, y: -5, z: 0}
    second:
      serializedVersion: 2
      m_TileIndex: 26
      m_TileSpriteIndex: 28
      m_TileMatrixIndex: 0
      m_TileColorIndex: 11
      m_TileObjectToInstantiateIndex: 65535
      m_AllTileFlags: 1073741827
  - first: {x: 2, y: -5, z: 0}
    second:
      serializedVersion: 2
      m_TileIndex: 27
      m_TileSpriteIndex: 29
      m_TileMatrixIndex: 0
      m_TileColorIndex: 12
      m_TileObjectToInstantiateIndex: 65535
      m_AllTileFlags: 1073741827
  - first: {x: 3, y: -5, z: 0}
    second:
      serializedVersion: 2
      m_TileIndex: 28
      m_TileSpriteIndex: 30
      m_TileMatrixIndex: 0
      m_TileColorIndex: 13
      m_TileObjectToInstantiateIndex: 65535
      m_AllTileFlags: 1073741827
  - first: {x: -1, y: -4, z: 0}
    second:
      serializedVersion: 2
      m_TileIndex: 19
      m_TileSpriteIndex: 31
      m_TileMatrixIndex: 0
      m_TileColorIndex: 14
      m_TileObjectToInstantiateIndex: 65535
      m_AllTileFlags: 1073741827
  - first: {x: 0, y: -4, z: 0}
    second:
      serializedVersion: 2
      m_TileIndex: 20
      m_TileSpriteIndex: 32
      m_TileMatrixIndex: 0
      m_TileColorIndex: 15
      m_TileObjectToInstantiateIndex: 65535
      m_AllTileFlags: 1073741827
  - first: {x: 1, y: -4, z: 0}
    second:
      serializedVersion: 2
      m_TileIndex: 21
      m_TileSpriteIndex: 33
      m_TileMatrixIndex: 0
      m_TileColorIndex: 16
      m_TileObjectToInstantiateIndex: 65535
      m_AllTileFlags: 1073741827
  - first: {x: 2, y: -4, z: 0}
    second:
      serializedVersion: 2
      m_TileIndex: 22
      m_TileSpriteIndex: 34
      m_TileMatrixIndex: 0
      m_TileColorIndex: 17
      m_TileObjectToInstantiateIndex: 65535
      m_AllTileFlags: 1073741827
  - first: {x: 3, y: -4, z: 0}
    second:
      serializedVersion: 2
      m_TileIndex: 23
      m_TileSpriteIndex: 35
      m_TileMatrixIndex: 0
      m_TileColorIndex: 18
      m_TileObjectToInstantiateIndex: 65535
      m_AllTileFlags: 1073741827
  - first: {x: -1, y: -3, z: 0}
    second:
      serializedVersion: 2
      m_TileIndex: 15
      m_TileSpriteIndex: 36
      m_TileMatrixIndex: 0
      m_TileColorIndex: 19
      m_TileObjectToInstantiateIndex: 65535
      m_AllTileFlags: 1073741827
  - first: {x: 0, y: -3, z: 0}
    second:
      serializedVersion: 2
      m_TileIndex: 16
      m_TileSpriteIndex: 15
      m_TileMatrixIndex: 0
      m_TileColorIndex: 0
      m_TileObjectToInstantiateIndex: 65535
      m_AllTileFlags: 1073741825
  - first: {x: 1, y: -3, z: 0}
    second:
      serializedVersion: 2
      m_TileIndex: 17
      m_TileSpriteIndex: 16
      m_TileMatrixIndex: 0
      m_TileColorIndex: 0
      m_TileObjectToInstantiateIndex: 65535
      m_AllTileFlags: 1073741825
  - first: {x: 2, y: -3, z: 0}
    second:
      serializedVersion: 2
      m_TileIndex: 18
      m_TileSpriteIndex: 17
      m_TileMatrixIndex: 0
      m_TileColorIndex: 0
      m_TileObjectToInstantiateIndex: 65535
      m_AllTileFlags: 1073741825
  - first: {x: -1, y: -2, z: 0}
    second:
      serializedVersion: 2
      m_TileIndex: 10
      m_TileSpriteIndex: 10
      m_TileMatrixIndex: 0
      m_TileColorIndex: 0
      m_TileObjectToInstantiateIndex: 65535
      m_AllTileFlags: 1073741825
  - first: {x: 0, y: -2, z: 0}
    second:
      serializedVersion: 2
      m_TileIndex: 11
      m_TileSpriteIndex: 11
      m_TileMatrixIndex: 0
      m_TileColorIndex: 0
      m_TileObjectToInstantiateIndex: 65535
      m_AllTileFlags: 1073741825
  - first: {x: 1, y: -2, z: 0}
    second:
      serializedVersion: 2
      m_TileIndex: 12
      m_TileSpriteIndex: 12
      m_TileMatrixIndex: 0
      m_TileColorIndex: 0
      m_TileObjectToInstantiateIndex: 65535
      m_AllTileFlags: 1073741825
  - first: {x: 2, y: -2, z: 0}
    second:
      serializedVersion: 2
      m_TileIndex: 13
      m_TileSpriteIndex: 13
      m_TileMatrixIndex: 0
      m_TileColorIndex: 0
      m_TileObjectToInstantiateIndex: 65535
      m_AllTileFlags: 1073741825
  - first: {x: 3, y: -2, z: 0}
    second:
      serializedVersion: 2
      m_TileIndex: 14
      m_TileSpriteIndex: 14
      m_TileMatrixIndex: 0
      m_TileColorIndex: 0
      m_TileObjectToInstantiateIndex: 65535
      m_AllTileFlags: 1073741825
  - first: {x: -1, y: -1, z: 0}
    second:
      serializedVersion: 2
      m_TileIndex: 5
      m_TileSpriteIndex: 5
      m_TileMatrixIndex: 0
      m_TileColorIndex: 0
      m_TileObjectToInstantiateIndex: 65535
      m_AllTileFlags: 1073741825
  - first: {x: 0, y: -1, z: 0}
    second:
      serializedVersion: 2
      m_TileIndex: 6
      m_TileSpriteIndex: 6
      m_TileMatrixIndex: 0
      m_TileColorIndex: 0
      m_TileObjectToInstantiateIndex: 65535
      m_AllTileFlags: 1073741825
  - first: {x: 1, y: -1, z: 0}
    second:
      serializedVersion: 2
      m_TileIndex: 7
      m_TileSpriteIndex: 7
      m_TileMatrixIndex: 0
      m_TileColorIndex: 0
      m_TileObjectToInstantiateIndex: 65535
      m_AllTileFlags: 1073741825
  - first: {x: 2, y: -1, z: 0}
    second:
      serializedVersion: 2
      m_TileIndex: 8
      m_TileSpriteIndex: 8
      m_TileMatrixIndex: 0
      m_TileColorIndex: 0
      m_TileObjectToInstantiateIndex: 65535
      m_AllTileFlags: 1073741825
  - first: {x: 3, y: -1, z: 0}
    second:
      serializedVersion: 2
      m_TileIndex: 9
      m_TileSpriteIndex: 9
      m_TileMatrixIndex: 0
      m_TileColorIndex: 0
      m_TileObjectToInstantiateIndex: 65535
      m_AllTileFlags: 1073741825
  - first: {x: -1, y: 0, z: 0}
    second:
      serializedVersion: 2
      m_TileIndex: 0
      m_TileSpriteIndex: 0
      m_TileMatrixIndex: 0
      m_TileColorIndex: 0
      m_TileObjectToInstantiateIndex: 65535
      m_AllTileFlags: 1073741825
  - first: {x: 0, y: 0, z: 0}
    second:
      serializedVersion: 2
      m_TileIndex: 1
      m_TileSpriteIndex: 1
      m_TileMatrixIndex: 0
      m_TileColorIndex: 0
      m_TileObjectToInstantiateIndex: 65535
      m_AllTileFlags: 1073741825
  - first: {x: 1, y: 0, z: 0}
    second:
      serializedVersion: 2
      m_TileIndex: 2
      m_TileSpriteIndex: 2
      m_TileMatrixIndex: 0
      m_TileColorIndex: 0
      m_TileObjectToInstantiateIndex: 65535
      m_AllTileFlags: 1073741825
  - first: {x: 2, y: 0, z: 0}
    second:
      serializedVersion: 2
      m_TileIndex: 3
      m_TileSpriteIndex: 3
      m_TileMatrixIndex: 0
      m_TileColorIndex: 0
      m_TileObjectToInstantiateIndex: 65535
      m_AllTileFlags: 1073741825
  - first: {x: 3, y: 0, z: 0}
    second:
      serializedVersion: 2
      m_TileIndex: 4
      m_TileSpriteIndex: 4
      m_TileMatrixIndex: 0
      m_TileColorIndex: 0
      m_TileObjectToInstantiateIndex: 65535
      m_AllTileFlags: 1073741825
  m_AnimatedTiles: {}
  m_TileAssetArray:
  - m_RefCount: 1
    m_Data: {fileID: 11400000, guid: 5c4fae49c11823e4f9f774ad51cdaee3, type: 2}
  - m_RefCount: 1
    m_Data: {fileID: 11400000, guid: 6b0d4e183bc57d946986f0225abeaf74, type: 2}
  - m_RefCount: 1
    m_Data: {fileID: 11400000, guid: 9fcd0561a2c010e478e47fb2dc98384a, type: 2}
  - m_RefCount: 1
    m_Data: {fileID: 11400000, guid: 0f6005a422d71a04f9567e76d2eb43fb, type: 2}
  - m_RefCount: 1
    m_Data: {fileID: 11400000, guid: f455cd840fb644340baf2f66d9c91fca, type: 2}
  - m_RefCount: 1
    m_Data: {fileID: 11400000, guid: aa80b36ff41077d498ea141ba36df31b, type: 2}
  - m_RefCount: 1
    m_Data: {fileID: 11400000, guid: a7f6e8ea6949497489435e58d15a90df, type: 2}
  - m_RefCount: 1
    m_Data: {fileID: 11400000, guid: f260ecbbf92a2804ebdfa9cdaeb4dd70, type: 2}
  - m_RefCount: 1
    m_Data: {fileID: 11400000, guid: 2d76b484441df4a47a194e9e0dbb8417, type: 2}
  - m_RefCount: 1
    m_Data: {fileID: 11400000, guid: 26b3636c683153d468c384bcf3c2b697, type: 2}
  - m_RefCount: 1
    m_Data: {fileID: 11400000, guid: 9cc04355794edd94abff3e4b7717c5a8, type: 2}
  - m_RefCount: 1
    m_Data: {fileID: 11400000, guid: ddc84eff9ea461e4c883b3719ec88727, type: 2}
  - m_RefCount: 1
    m_Data: {fileID: 11400000, guid: af351d26695aba548984d42eb9f40490, type: 2}
  - m_RefCount: 1
    m_Data: {fileID: 11400000, guid: 3684f95acbb296147af3beaee7d061b0, type: 2}
  - m_RefCount: 1
    m_Data: {fileID: 11400000, guid: 692eaab4efde40a4fbd7160bdabb16a1, type: 2}
  - m_RefCount: 1
    m_Data: {fileID: 0}
  - m_RefCount: 1
    m_Data: {fileID: 11400000, guid: 3952570e3c5280649bb4a95a8e79a008, type: 2}
  - m_RefCount: 1
    m_Data: {fileID: 11400000, guid: 97cffada1d4b19a45a7140a542f9cf70, type: 2}
  - m_RefCount: 1
    m_Data: {fileID: 11400000, guid: 5f6ec911116ebb644b16617c3ddf0050, type: 2}
  - m_RefCount: 1
    m_Data: {fileID: 0}
  - m_RefCount: 1
    m_Data: {fileID: 0}
  - m_RefCount: 1
    m_Data: {fileID: 0}
  - m_RefCount: 1
    m_Data: {fileID: 0}
  - m_RefCount: 1
    m_Data: {fileID: 0}
  - m_RefCount: 1
    m_Data: {fileID: 0}
  - m_RefCount: 1
    m_Data: {fileID: 0}
  - m_RefCount: 1
    m_Data: {fileID: 0}
  - m_RefCount: 1
    m_Data: {fileID: 0}
  - m_RefCount: 1
    m_Data: {fileID: 0}
  - m_RefCount: 1
    m_Data: {fileID: 0}
  - m_RefCount: 1
    m_Data: {fileID: 0}
  - m_RefCount: 1
    m_Data: {fileID: 0}
  - m_RefCount: 1
    m_Data: {fileID: 0}
  - m_RefCount: 1
    m_Data: {fileID: 0}
  - m_RefCount: 1
    m_Data: {fileID: 0}
  - m_RefCount: 1
    m_Data: {fileID: 0}
  - m_RefCount: 1
    m_Data: {fileID: 0}
  m_TileSpriteArray:
  - m_RefCount: 1
    m_Data: {fileID: 21300000, guid: a8ca4c1508f027c4e9ba8906618e6bc8, type: 3}
  - m_RefCount: 1
    m_Data: {fileID: 21300000, guid: b44974adf6594654eabd9e59eb38736c, type: 3}
  - m_RefCount: 1
    m_Data: {fileID: 21300000, guid: 70e4b9ccd6019574085282bd09e53180, type: 3}
  - m_RefCount: 1
    m_Data: {fileID: 21300000, guid: 2e7be15e5e6691b4a90a6254a797ae4a, type: 3}
  - m_RefCount: 1
    m_Data: {fileID: 21300000, guid: bd617de09b11e634fb6246befc163669, type: 3}
  - m_RefCount: 1
    m_Data: {fileID: 21300000, guid: 4e629d4844c5dde4482c79c0f19949b1, type: 3}
  - m_RefCount: 1
    m_Data: {fileID: 21300000, guid: e526c0be9beed5e409b655d1602f53d0, type: 3}
  - m_RefCount: 1
    m_Data: {fileID: 21300000, guid: 06563bbaf425fca4fa7e004852d5189e, type: 3}
  - m_RefCount: 1
    m_Data: {fileID: 21300000, guid: 28d5b145c65bb004693c7bbae38b6dc7, type: 3}
  - m_RefCount: 1
    m_Data: {fileID: 21300000, guid: 9d58293ed9e22b547bec2ed38cde1977, type: 3}
  - m_RefCount: 1
    m_Data: {fileID: 21300000, guid: 3d97521401ff58a4da56c2a7bae935c5, type: 3}
  - m_RefCount: 1
    m_Data: {fileID: 21300000, guid: 1dbdd8b7099ca904f80e84b2674b596f, type: 3}
  - m_RefCount: 1
    m_Data: {fileID: 21300000, guid: 02bd2b526f09cf34c9692be868f615c8, type: 3}
  - m_RefCount: 1
    m_Data: {fileID: 21300000, guid: 877fef570a5475c448ea0238675d42a3, type: 3}
  - m_RefCount: 1
    m_Data: {fileID: 21300000, guid: d126d65656d01d646a0b73b9a17942c3, type: 3}
  - m_RefCount: 1
    m_Data: {fileID: 21300000, guid: 25a2c3adab212224785660f1cb1d7a40, type: 3}
  - m_RefCount: 1
    m_Data: {fileID: 21300000, guid: af8ce5ca7a08d0c4b8532dad58b2f21f, type: 3}
  - m_RefCount: 1
    m_Data: {fileID: 21300000, guid: 242768778b84d1545adcea9a0027fecc, type: 3}
  - m_RefCount: 1
    m_Data: {fileID: 0}
  - m_RefCount: 1
    m_Data: {fileID: 0}
  - m_RefCount: 1
    m_Data: {fileID: 0}
  - m_RefCount: 1
    m_Data: {fileID: 0}
  - m_RefCount: 1
    m_Data: {fileID: 0}
  - m_RefCount: 1
    m_Data: {fileID: 0}
  - m_RefCount: 1
    m_Data: {fileID: 0}
  - m_RefCount: 1
    m_Data: {fileID: 0}
  - m_RefCount: 1
    m_Data: {fileID: 0}
  - m_RefCount: 1
    m_Data: {fileID: 0}
  - m_RefCount: 1
    m_Data: {fileID: 0}
  - m_RefCount: 1
    m_Data: {fileID: 0}
  - m_RefCount: 1
    m_Data: {fileID: 0}
  - m_RefCount: 1
    m_Data: {fileID: 0}
  - m_RefCount: 1
    m_Data: {fileID: 0}
  - m_RefCount: 1
    m_Data: {fileID: 0}
  - m_RefCount: 1
    m_Data: {fileID: 0}
  - m_RefCount: 1
    m_Data: {fileID: 0}
  - m_RefCount: 1
    m_Data: {fileID: 0}
  m_TileMatrixArray:
  - m_RefCount: 37
    m_Data:
      e00: 1
      e01: 0
      e02: 0
      e03: 0
      e10: 0
      e11: 1
      e12: 0
      e13: 0
      e20: 0
      e21: 0
      e22: 1
      e23: 0
      e30: 0
      e31: 0
      e32: 0
      e33: 1
  m_TileColorArray:
  - m_RefCount: 18
    m_Data: {r: 1, g: 1, b: 1, a: 1}
  - m_RefCount: 1
    m_Data: {r: 0.8653648, g: 0.40015182, b: 0.4148601, a: 1}
  - m_RefCount: 1
    m_Data: {r: 0.71013665, g: 0.4611513, b: 0.5233777, a: 1}
  - m_RefCount: 1
    m_Data: {r: 0.94036424, g: 0.42618814, b: 0.5928113, a: 1}
  - m_RefCount: 1
    m_Data: {r: 0.9653863, g: 0.6172688, b: 0.71630067, a: 1}
  - m_RefCount: 1
    m_Data: {r: 0.99071044, g: 0.56558275, b: 0.626074, a: 1}
  - m_RefCount: 1
    m_Data: {r: 0.8387205, g: 0.4904758, b: 0.5560384, a: 1}
  - m_RefCount: 1
    m_Data: {r: 0.9526849, g: 0.40346113, b: 0.47522378, a: 1}
  - m_RefCount: 1
    m_Data: {r: 0.97576183, g: 0.6645853, b: 0.6731288, a: 1}
  - m_RefCount: 1
    m_Data: {r: 0.9842511, g: 0.42631873, b: 0.4891655, a: 1}
  - m_RefCount: 1
    m_Data: {r: 0.828586, g: 0.39122894, b: 0.49382794, a: 1}
  - m_RefCount: 1
    m_Data: {r: 0.88260365, g: 0.36994937, b: 0.391129, a: 1}
  - m_RefCount: 1
    m_Data: {r: 0.70272356, g: 0.48482576, b: 0.50579774, a: 1}
  - m_RefCount: 1
    m_Data: {r: 0.7076025, g: 0.4882974, b: 0.5595669, a: 1}
  - m_RefCount: 1
    m_Data: {r: 0.87827814, g: 0.5987754, b: 0.6085358, a: 1}
  - m_RefCount: 1
    m_Data: {r: 0.99267834, g: 0.5657635, b: 0.5857546, a: 1}
  - m_RefCount: 1
    m_Data: {r: 0.7522576, g: 0.42799336, b: 0.43934348, a: 1}
  - m_RefCount: 1
    m_Data: {r: 0.8629222, g: 0.5394935, b: 0.5962879, a: 1}
  - m_RefCount: 1
    m_Data: {r: 0.8823064, g: 0.3703983, b: 0.50569284, a: 1}
  - m_RefCount: 1
    m_Data: {r: 0.8014079, g: 0.40879306, b: 0.43620542, a: 1}
  m_TileObjectToInstantiateArray: []
  m_AnimationFrameRate: 1
  m_Color: {r: 1, g: 1, b: 1, a: 1}
  m_Origin: {x: -1, y: -7, z: 0}
  m_Size: {x: 5, y: 8, z: 1}
  m_TileAnchor: {x: 0.5, y: 0.5, z: 0}
  m_TileOrientation: 0
  m_TileOrientationMatrix:
    e00: 1
    e01: 0
    e02: 0
    e03: 0
    e10: 0
    e11: 1
    e12: 0
    e13: 0
    e20: 0
    e21: 0
    e22: 1
    e23: 0
    e30: 0
    e31: 0
    e32: 0
    e33: 1
--- !u!483693784 &2938877938520974588
TilemapRenderer:
  m_ObjectHideFlags: 0
  m_CorrespondingSourceObject: {fileID: 0}
  m_PrefabInstance: {fileID: 0}
  m_PrefabAsset: {fileID: 0}
  m_GameObject: {fileID: 8153245933429780425}
  m_Enabled: 0
  m_CastShadows: 0
  m_ReceiveShadows: 0
  m_DynamicOccludee: 0
  m_MotionVectors: 1
  m_LightProbeUsage: 0
  m_ReflectionProbeUsage: 0
  m_RayTracingMode: 0
  m_RenderingLayerMask: 1
  m_RendererPriority: 0
  m_Materials:
  - {fileID: 10754, guid: 0000000000000000f000000000000000, type: 0}
  m_StaticBatchInfo:
    firstSubMesh: 0
    subMeshCount: 0
  m_StaticBatchRoot: {fileID: 0}
  m_ProbeAnchor: {fileID: 0}
  m_LightProbeVolumeOverride: {fileID: 0}
  m_ScaleInLightmap: 1
  m_ReceiveGI: 1
  m_PreserveUVs: 0
  m_IgnoreNormalsForChartDetection: 0
  m_ImportantGI: 0
  m_StitchLightmapSeams: 1
  m_SelectedEditorRenderState: 0
  m_MinimumChartSize: 4
  m_AutoUVMaxDistance: 0.5
  m_AutoUVMaxAngle: 89
  m_LightmapParameters: {fileID: 0}
  m_SortingLayerID: 0
  m_SortingLayer: 0
  m_SortingOrder: 0
  m_ChunkSize: {x: 32, y: 32, z: 32}
  m_ChunkCullingBounds: {x: 0.14499998, y: 0.14499998, z: 0}
  m_MaxChunkCount: 16
  m_MaxFrameAge: 16
  m_SortOrder: 0
  m_Mode: 0
  m_DetectChunkCullingBounds: 0
  m_MaskInteraction: 0
--- !u!114 &4104825874032236220
MonoBehaviour:
  m_ObjectHideFlags: 0
  m_CorrespondingSourceObject: {fileID: 0}
  m_PrefabInstance: {fileID: 0}
  m_PrefabAsset: {fileID: 0}
  m_GameObject: {fileID: 0}
  m_Enabled: 1
  m_EditorHideFlags: 0
  m_Script: {fileID: 12395, guid: 0000000000000000e000000000000000, type: 0}
  m_Name: Palette Settings
  m_EditorClassIdentifier: 
  cellSizing: 0
