%YAML 1.1
%TAG !u! tag:unity3d.com,2011:
--- !u!74 &7400000
AnimationClip:
  m_ObjectHideFlags: 0
  m_CorrespondingSourceObject: {fileID: 0}
  m_PrefabInstance: {fileID: 0}
  m_PrefabAsset: {fileID: 0}
  m_Name: FireBallEffcet
  serializedVersion: 6
  m_Legacy: 0
  m_Compressed: 0
  m_UseHighQualityCurve: 1
  m_RotationCurves: []
  m_CompressedRotationCurves: []
  m_EulerCurves: []
  m_PositionCurves: []
  m_ScaleCurves: []
  m_FloatCurves: []
  m_PPtrCurves:
  - curve:
    - time: 0
      value: {fileID: 21300000, guid: 293276643bb2ddd408d9145f15db23e2, type: 3}
    - time: 0.05
      value: {fileID: 21300000, guid: a8a81f7163fa29442b63b47d751d64dd, type: 3}
    - time: 0.1
      value: {fileID: 21300000, guid: 75a3e049c8703dd4c8c520102a77bd15, type: 3}
    - time: 0.15
      value: {fileID: 21300000, guid: 296ac19e2147e67408eed4611d3f93f4, type: 3}
    - time: 0.2
      value: {fileID: 21300000, guid: 82e10937dee60ac49aab93107e008888, type: 3}
    - time: 0.25
      value: {fileID: 21300000, guid: 5570ce90349bcee48ad72f984407eb70, type: 3}
    attribute: m_Sprite
    path: 
    classID: 212
    script: {fileID: 0}
  m_SampleRate: 60
  m_WrapMode: 0
  m_Bounds:
    m_Center: {x: 0, y: 0, z: 0}
    m_Extent: {x: 0, y: 0, z: 0}
  m_ClipBindingConstant:
    genericBindings:
    - serializedVersion: 2
      path: 0
      attribute: 0
      script: {fileID: 0}
      typeID: 212
      customType: 23
      isPPtrCurve: 1
    pptrCurveMapping:
    - {fileID: 21300000, guid: 293276643bb2ddd408d9145f15db23e2, type: 3}
    - {fileID: 21300000, guid: a8a81f7163fa29442b63b47d751d64dd, type: 3}
    - {fileID: 21300000, guid: 75a3e049c8703dd4c8c520102a77bd15, type: 3}
    - {fileID: 21300000, guid: 296ac19e2147e67408eed4611d3f93f4, type: 3}
    - {fileID: 21300000, guid: 82e10937dee60ac49aab93107e008888, type: 3}
    - {fileID: 21300000, guid: 5570ce90349bcee48ad72f984407eb70, type: 3}
  m_AnimationClipSettings:
    serializedVersion: 2
    m_AdditiveReferencePoseClip: {fileID: 0}
    m_AdditiveReferencePoseTime: 0
    m_StartTime: 0
    m_StopTime: 0.26666668
    m_OrientationOffsetY: 0
    m_Level: 0
    m_CycleOffset: 0
    m_HasAdditiveReferencePose: 0
    m_LoopTime: 0
    m_LoopBlend: 0
    m_LoopBlendOrientation: 0
    m_LoopBlendPositionY: 0
    m_LoopBlendPositionXZ: 0
    m_KeepOriginalOrientation: 0
    m_KeepOriginalPositionY: 1
    m_KeepOriginalPositionXZ: 0
    m_HeightFromFeet: 0
    m_Mirror: 0
  m_EditorCurves: []
  m_EulerEditorCurves: []
  m_HasGenericRootTransform: 0
  m_HasMotionFloatCurves: 0
  m_Events:
  - time: 0.25
    functionName: FireBallEffectDestroy
    data: 
    objectReferenceParameter: {fileID: 0}
    floatParameter: 0
    intParameter: 0
    messageOptions: 0
